%YAML 1.1
%TAG !u! tag:unity3d.com,2011:
--- !u!1 &613288771938535724
GameObject:
  m_ObjectHideFlags: 0
  m_CorrespondingSourceObject: {fileID: 0}
  m_PrefabInstance: {fileID: 0}
  m_PrefabAsset: {fileID: 0}
  serializedVersion: 6
  m_Component:
  - component: {fileID: 613288771938535726}
  - component: {fileID: 613288771938535727}
  m_Layer: 0
  m_Name: AudioTest
  m_TagString: Untagged
  m_Icon: {fileID: 0}
  m_NavMeshLayer: 0
  m_StaticEditorFlags: 0
  m_IsActive: 1
--- !u!4 &613288771938535726
Transform:
  m_ObjectHideFlags: 0
  m_CorrespondingSourceObject: {fileID: 0}
  m_PrefabInstance: {fileID: 0}
  m_PrefabAsset: {fileID: 0}
  m_GameObject: {fileID: 613288771938535724}
  m_LocalRotation: {x: 0, y: 0, z: 0, w: 1}
  m_LocalPosition: {x: 35.1024, y: 6.9571185, z: 4.3289742}
  m_LocalScale: {x: 1, y: 1, z: 1}
  m_Children: []
  m_Father: {fileID: 0}
  m_RootOrder: 0
  m_LocalEulerAnglesHint: {x: 0, y: 0, z: 0}
--- !u!114 &613288771938535727
MonoBehaviour:
  m_ObjectHideFlags: 0
  m_CorrespondingSourceObject: {fileID: 0}
  m_PrefabInstance: {fileID: 0}
  m_PrefabAsset: {fileID: 0}
  m_GameObject: {fileID: 613288771938535724}
  m_Enabled: 1
  m_EditorHideFlags: 0
  m_Script: {fileID: 11500000, guid: 7dd2c7bf2190f6d4b812de0f5a6652df, type: 3}
  m_Name: 
  m_EditorClassIdentifier: 
  _PlayJogging:
    idInternal: 0
    valueGuidInternal: 
    WwiseObjectReference: {fileID: 0}
  _Concrete:
    idInternal: 0
    valueGuidInternal: 
    groupIdInternal: 0
    groupGuidInternal: 
    WwiseObjectReference: {fileID: 11400000, guid: dc60bd038f6e1b343b98c47bab49266d,
      type: 2}
  _Gravel:
    idInternal: 0
    valueGuidInternal: 
    groupIdInternal: 0
    groupGuidInternal: 
    WwiseObjectReference: {fileID: 11400000, guid: 5b899d39f80de454690ce05b402c038a,
      type: 2}
  _Idle:
    idInternal: 0
    valueGuidInternal: 
    groupIdInternal: 0
    groupGuidInternal: 
    WwiseObjectReference: {fileID: 11400000, guid: 76f611df096f4ca429803ce3854f0110,
      type: 2}
  _Jogging:
    idInternal: 0
    valueGuidInternal: 
    groupIdInternal: 0
    groupGuidInternal: 
    WwiseObjectReference: {fileID: 11400000, guid: f3e37cdeb18f0a142a16780083cd07f8,
      type: 2}
  _Nitro:
    idInternal: 0
    valueGuidInternal: 
    groupIdInternal: 0
    groupGuidInternal: 
    WwiseObjectReference: {fileID: 11400000, guid: 0d614f6371f5f2d41a18f22ad3778b30,
      type: 2}
  _Walking:
    idInternal: 0
    valueGuidInternal: 
    groupIdInternal: 0
    groupGuidInternal: 
    WwiseObjectReference: {fileID: 11400000, guid: 097a05f725bab8a4b8a497aaab3fdd9b,
      type: 2}
