%YAML 1.1
%TAG !u! tag:unity3d.com,2011:
--- !u!1 &6036649283546604579
GameObject:
  m_ObjectHideFlags: 0
  m_CorrespondingSourceObject: {fileID: 0}
  m_PrefabInstance: {fileID: 0}
  m_PrefabAsset: {fileID: 0}
  serializedVersion: 6
  m_Component:
  - component: {fileID: 5402942215659460594}
  - component: {fileID: 5952086484057731347}
  m_Layer: 0
  m_Name: RespawnManager
  m_TagString: Untagged
  m_Icon: {fileID: 0}
  m_NavMeshLayer: 0
  m_StaticEditorFlags: 0
  m_IsActive: 1
--- !u!4 &5402942215659460594
Transform:
  m_ObjectHideFlags: 0
  m_CorrespondingSourceObject: {fileID: 0}
  m_PrefabInstance: {fileID: 0}
  m_PrefabAsset: {fileID: 0}
  m_GameObject: {fileID: 6036649283546604579}
  m_LocalRotation: {x: 0, y: 0, z: 0, w: 1}
  m_LocalPosition: {x: 0, y: 0, z: 0}
  m_LocalScale: {x: 1, y: 1, z: 1}
  m_Children: []
  m_Father: {fileID: 0}
  m_RootOrder: 0
  m_LocalEulerAnglesHint: {x: 0, y: 0, z: 0}
--- !u!114 &5952086484057731347
MonoBehaviour:
  m_ObjectHideFlags: 0
  m_CorrespondingSourceObject: {fileID: 0}
  m_PrefabInstance: {fileID: 0}
  m_PrefabAsset: {fileID: 0}
  m_GameObject: {fileID: 6036649283546604579}
  m_Enabled: 1
  m_EditorHideFlags: 0
  m_Script: {fileID: 11500000, guid: d34cbbc3b6d3f154b90a7d8b65950fca, type: 3}
  m_Name: 
  m_EditorClassIdentifier: 
  _RespawnManager: {fileID: 11400000, guid: a6ea451a37599b34abaca9f1ef0c97dd, type: 2}
  _PlayerTransform: {fileID: 11400000, guid: a08325b253d75e5488b5eafd87728573, type: 2}
  _UIManager: {fileID: 11400000, guid: 65f4f252c5b6479428abc697c55722d9, type: 2}
