%YAML 1.1
%TAG !u! tag:unity3d.com,2011:
--- !u!21 &2100000
Material:
  serializedVersion: 6
  m_ObjectHideFlags: 0
  m_CorrespondingSourceObject: {fileID: 0}
  m_PrefabInstance: {fileID: 0}
  m_PrefabAsset: {fileID: 0}
  m_Name: UFOClean
  m_Shader: {fileID: -6465566751694194690, guid: 7d3a821e12557ab41b5ae4002718ca9a,
    type: 3}
  m_ShaderKeywords: 
  m_LightmapFlags: 4
  m_EnableInstancingVariants: 0
  m_DoubleSidedGI: 0
  m_CustomRenderQueue: -1
  stringTagMap: {}
  disabledShaderPasses: []
  m_SavedProperties:
    serializedVersion: 3
    m_TexEnvs:
    - Texture2D_6B4D0AD2:
        m_Texture: {fileID: 0}
        m_Scale: {x: 1, y: 1}
        m_Offset: {x: 0, y: 0}
    - Texture2D_8D4A25EA:
        m_Texture: {fileID: 0}
        m_Scale: {x: 1, y: 1}
        m_Offset: {x: 0, y: 0}
    - Texture2D_9389B3EC:
        m_Texture: {fileID: 0}
        m_Scale: {x: 1, y: 1}
        m_Offset: {x: 0, y: 0}
    - Texture2D_99168C3E:
        m_Texture: {fileID: 2800000, guid: 5c3eae9c1a3dc5b4fa4297ce93573656, type: 3}
        m_Scale: {x: 1, y: 1}
        m_Offset: {x: 0, y: 0}
    - Texture2D_9EA3657F:
        m_Texture: {fileID: 2800000, guid: 5e2d459f261edac41843313f9e0b575d, type: 3}
        m_Scale: {x: 1, y: 1}
        m_Offset: {x: 0, y: 0}
    - Texture2D_B90508F4:
        m_Texture: {fileID: 2800000, guid: e139c7d792f229344b2c49c085b555c7, type: 3}
        m_Scale: {x: 1, y: 1}
        m_Offset: {x: 0, y: 0}
    - Texture2D_C09D5207:
        m_Texture: {fileID: 0}
        m_Scale: {x: 1, y: 1}
        m_Offset: {x: 0, y: 0}
    - Texture2D_C2E9D4EE:
        m_Texture: {fileID: 2800000, guid: 4b5d774188debc04abeedbde6502c744, type: 3}
        m_Scale: {x: 1, y: 1}
        m_Offset: {x: 0, y: 0}
    - _SampleTexture2D_3B3BE813_Texture_1:
        m_Texture: {fileID: 0}
        m_Scale: {x: 1, y: 1}
        m_Offset: {x: 0, y: 0}
    - _SampleTexture2D_9B4D826D_Texture:
        m_Texture: {fileID: 0}
        m_Scale: {x: 1, y: 1}
        m_Offset: {x: 0, y: 0}
    m_Floats:
    - Boolean_2713BE82: 0
    - Boolean_53B28986: 1
    - Boolean_75EB8146: 0
    - Boolean_8022FE3E: 1
    - Boolean_AD92391A: 0
    - Boolean_BCCD15CE: 0
    - Vector1_26D9198F: 0
    - Vector1_4565434B: 2
    - Vector1_4E776493: 1
    - Vector1_50E757A9: 1.89
    - Vector1_54AEBE71: 0
    - Vector1_7064F7F1: 0
    - Vector1_8054D276: 0.27
    - Vector1_88547A27: 0
    - Vector1_9BC6290B: 15
    - Vector1_B8905E29: 6
    - Vector1_B95E46C5: 218
    - Vector1_C61EB09B: 2
    - Vector1_E54F39E: 0
    m_Colors:
    - Color_7AE2F014: {r: 1, g: 1, b: 1, a: 0}
    - Color_8F3A4B42: {r: 1, g: 1, b: 1, a: 1}
