%YAML 1.1
%TAG !u! tag:unity3d.com,2011:
--- !u!1045 &1
EditorBuildSettings:
  m_ObjectHideFlags: 0
  serializedVersion: 2
  m_Scenes:
  - enabled: 1
    path: Assets/Scenes/PreLoad/00_BootScreen.unity
    guid: 5f3d99cdd596a6440b6ef6e7054906cb
  - enabled: 1
    path: Assets/Scenes/PreLoad/01_Pre-load.unity
    guid: 8392c185e605f8f48a5b97e7c4e5e4d3
  - enabled: 1
    path: Assets/Scenes/MainMenu/02_MainMenu.unity
    guid: 9d5f970d0b168cb48bc50ce8f2337750
  - enabled: 1
    path: Assets/Scenes/PersonalScenes/LukasScene/SceneLukasNew.unity
    guid: 62c2c97f4037cbb44b29d5f130b75c24
  m_configObjects: {}
