%YAML 1.1
%TAG !u! tag:unity3d.com,2011:
--- !u!181963792 &2655988077585873504
Preset:
  m_ObjectHideFlags: 0
  m_CorrespondingSourceObject: {fileID: 0}
  m_PrefabInstance: {fileID: 0}
  m_PrefabAsset: {fileID: 0}
  m_Name: PlayerCapsuleCollider
  m_TargetType:
    m_NativeTypeID: 136
    m_ManagedTypePPtr: {fileID: 0}
    m_ManagedTypeFallback: 
  m_Properties:
  - target: {fileID: 0}
    propertyPath: m_Material
    value: 
    objectReference: {fileID: 0}
  - target: {fileID: 0}
    propertyPath: m_IsTrigger
    value: 0
    objectReference: {fileID: 0}
  - target: {fileID: 0}
    propertyPath: m_Enabled
    value: 1
    objectReference: {fileID: 0}
  - target: {fileID: 0}
    propertyPath: m_Radius
    value: 1.3199594
    objectReference: {fileID: 0}
  - target: {fileID: 0}
    propertyPath: m_Height
    value: 7.430567
    objectReference: {fileID: 0}
  - target: {fileID: 0}
    propertyPath: m_Direction
    value: 1
    objectReference: {fileID: 0}
  - target: {fileID: 0}
    propertyPath: m_Center.x
    value: 0
    objectReference: {fileID: 0}
  - target: {fileID: 0}
    propertyPath: m_Center.y
    value: 3.878049
    objectReference: {fileID: 0}
  - target: {fileID: 0}
    propertyPath: m_Center.z
    value: 0.028381586
    objectReference: {fileID: 0}
